Alejandro Lopez - Analysis
…
Using the list of themes that have the most number of pieces, now we will analyze how the number of pieces has changed over the years for each theme. We will also look at how the number of total sets produced per theme has varied. We will focus on the last 25 years only.

top <- with_theme %>% filter(theme_name %in% most_popular_pieces) %>% select(set_num, year, num_parts, theme_name) %>% filter(num_parts > 10) %>% group_by(theme_name, year) %>% summarize(sum = sum(num_parts), n=n()) %>% filter(year >= 1997) %>% ungroup()

`summarise()` has grouped output by 'theme_name'. You can override using the
`.groups` argument.

top_no_zero <- top
top

# A tibble: 183 × 4
   theme_name  year   sum     n
   <chr>      <dbl> <dbl> <int>
 1 City        2005   314     2
 2 City        2006   688     3
 3 City        2007   234     1
 4 City        2008   197     1
 5 City        2009   599     4
 6 City        2010   656     2
 7 City        2011  1198     6
 8 City        2012   248     1
 9 City        2013  1188     5
10 City        2014  1360     8
# … with 173 more rows
…
